STA 141A: Predicting Wildfire Incidence in the United States
…
Now, we will fit and evaluate both models. We will use a rolling
time-based method to evaluate them both. For each year, the models will
be trained on data from every year before so that they can be tested on
that year. This approach makes sure that predictions are evaluated on
out-of-sample data and more closely reflects how the models would
perform in practice. We are using the AUC values of both models to
evaluate them.

##  [1] 1992 1993 1994 1995 1996 1997 1998 1999 2000 2001 2002 2003 2004 2005 2006
## [16] 2007 2008 2009 2010 2011 2012 2013 2014 2015

## [1] 24

## # A tibble: 21 × 4
##    train_end_year test_year auc_glm auc_rf
##             <dbl>     <dbl>   <dbl>  <dbl>
##  1           1994      1995   0.710  0.831
##  2           1995      1996   0.699  0.889
##  3           1996      1997   0.820  0.892
##  4           1997      1998   0.811  0.883
##  5           1998      1999   0.685  0.796
##  6           1999      2000   0.652  0.838
##  7           2000      2001   0.698  0.852
##  8           2001      2002   0.695  0.853
##  9           2002      2003   0.752  0.857
## 10           2003      2004   0.670  0.836
## # ℹ 11 more rows
…
